…
  .. ..$ : int [1:6] 109 110 111 112 113 114
  .. ..$ : int [1:6] 115 116 117 118 119 120
  .. ..$ : int [1:6] 121 122 123 124 125 126
  .. ..$ : int [1:6] 127 128 129 130 131 132
  .. ..$ : int [1:6] 133 134 135 136 137 138
  .. ..$ : int [1:6] 139 140 141 142 143 144
  .. ..$ : int [1:6] 145 146 147 148 149 150
  .. ..$ : int [1:6] 151 152 153 154 155 156
  .. ..$ : int [1:6] 157 158 159 160 161 162
  .. ..$ : int [1:6] 163 164 165 166 167 168
  .. ..$ : int [1:6] 169 170 171 172 173 174
  .. ..$ : int [1:6] 175 176 177 178 179 180
  ..- attr(*, ".drop")= logi TRUE
> FinalData
# A tibble: 180 x 88
# Groups:   subject [30]
   subject activity TimeBodyAcceler~ TimeBodyAcceler~ TimeBodyAcceler~ TimeGravityAcce~ TimeGravityAcce~ TimeGravityAcce~
     <int>    <int>            <dbl>            <dbl>            <dbl>            <dbl>            <dbl>            <dbl>
 1       1        1            0.277         -0.0174           -0.111             0.935           -0.282          -0.0681
 2       1        2            0.255         -0.0240           -0.0973            0.893           -0.362          -0.0754
 3       1        3            0.289         -0.00992          -0.108             0.932           -0.267          -0.0621
 4       1        4            0.261         -0.00131          -0.105             0.832            0.204           0.332 
 5       1        5            0.279         -0.0161           -0.111             0.943           -0.273           0.0135
 6       1        6            0.222         -0.0405           -0.113            -0.249            0.706           0.446 
 7       2        1            0.276         -0.0186           -0.106             0.913           -0.347           0.0847
 8       2        2            0.247         -0.0214           -0.153             0.791           -0.416          -0.196 
 9       2        3            0.278         -0.0227           -0.117             0.862           -0.326          -0.0439
10       2        4            0.277         -0.0157           -0.109             0.940           -0.106           0.199 
# ... with 170 more rows, and 80 more variables: TimeBodyAccelerometerJerk.mean...X <dbl>,
#   TimeBodyAccelerometerJerk.mean...Y <dbl>, TimeBodyAccelerometerJerk.mean...Z <dbl>, TimeBodyGyroscope.mean...X <dbl>,
#   TimeBodyGyroscope.mean...Y <dbl>, TimeBodyGyroscope.mean...Z <dbl>, TimeBodyGyroscopeJerk.mean...X <dbl>,
#   TimeBodyGyroscopeJerk.mean...Y <dbl>, TimeBodyGyroscopeJerk.mean...Z <dbl>,
#   TimeBodyAccelerometerMagnitude.mean.. <dbl>, TimeGravityAccelerometerMagnitude.mean.. <dbl>,
#   TimeBodyAccelerometerJerkMagnitude.mean.. <dbl>, TimeBodyGyroscopeMagnitude.mean.. <dbl>,
#   TimeBodyGyroscopeJerkMagnitude.mean.. <dbl>, FrequencyBodyAccelerometer.mean...X <dbl>,
#   FrequencyBodyAccelerometer.mean...Y <dbl>, FrequencyBodyAccelerometer.mean...Z <dbl>,
#   FrequencyBodyAccelerometer.meanFreq...X <dbl>, FrequencyBodyAccelerometer.meanFreq...Y <dbl>,
…
  .. ..$ : int [1:6] 115 116 117 118 119 120
  .. ..$ : int [1:6] 121 122 123 124 125 126
  .. ..$ : int [1:6] 127 128 129 130 131 132
  .. ..$ : int [1:6] 133 134 135 136 137 138
  .. ..$ : int [1:6] 139 140 141 142 143 144
  .. ..$ : int [1:6] 145 146 147 148 149 150
  .. ..$ : int [1:6] 151 152 153 154 155 156
  .. ..$ : int [1:6] 157 158 159 160 161 162
  .. ..$ : int [1:6] 163 164 165 166 167 168
  .. ..$ : int [1:6] 169 170 171 172 173 174
  .. ..$ : int [1:6] 175 176 177 178 179 180
  ..- attr(*, ".drop")= logi TRUE
> 
> FinalData
# A tibble: 180 x 88
# Groups:   subject [30]
   subject activity TimeBodyAcceler~ TimeBodyAcceler~ TimeBodyAcceler~ TimeGravityAcce~ TimeGravityAcce~ TimeGravityAcce~
     <int> <chr>               <dbl>            <dbl>            <dbl>            <dbl>            <dbl>            <dbl>
 1       1 LAYING              0.222         -0.0405           -0.113            -0.249            0.706           0.446 
 2       1 SITTING             0.261         -0.00131          -0.105             0.832            0.204           0.332 
 3       1 STANDING            0.279         -0.0161           -0.111             0.943           -0.273           0.0135
 4       1 WALKING             0.277         -0.0174           -0.111             0.935           -0.282          -0.0681
 5       1 WALKING~            0.289         -0.00992          -0.108             0.932           -0.267          -0.0621
 6       1 WALKING~            0.255         -0.0240           -0.0973            0.893           -0.362          -0.0754
 7       2 LAYING              0.281         -0.0182           -0.107            -0.510            0.753           0.647 
 8       2 SITTING             0.277         -0.0157           -0.109             0.940           -0.106           0.199 
 9       2 STANDING            0.278         -0.0184           -0.106             0.897           -0.370           0.130 
10       2 WALKING             0.276         -0.0186           -0.106             0.913           -0.347           0.0847
# ... with 170 more rows, and 80 more variables: TimeBodyAccelerometerJerk.mean...X <dbl>,
#   TimeBodyAccelerometerJerk.mean...Y <dbl>, TimeBodyAccelerometerJerk.mean...Z <dbl>, TimeBodyGyroscope.mean...X <dbl>,
#   TimeBodyGyroscope.mean...Y <dbl>, TimeBodyGyroscope.mean...Z <dbl>, TimeBodyGyroscopeJerk.mean...X <dbl>,
#   TimeBodyGyroscopeJerk.mean...Y <dbl>, TimeBodyGyroscopeJerk.mean...Z <dbl>,
#   TimeBodyAccelerometerMagnitude.mean.. <dbl>, TimeGravityAccelerometerMagnitude.mean.. <dbl>,
#   TimeBodyAccelerometerJerkMagnitude.mean.. <dbl>, TimeBodyGyroscopeMagnitude.mean.. <dbl>,
#   TimeBodyGyroscopeJerkMagnitude.mean.. <dbl>, FrequencyBodyAccelerometer.mean...X <dbl>,
#   FrequencyBodyAccelerometer.mean...Y <dbl>, FrequencyBodyAccelerometer.mean...Z <dbl>,
#   FrequencyBodyAccelerometer.meanFreq...X <dbl>, FrequencyBodyAccelerometer.meanFreq...Y <dbl>,
…
